// Jest Snapshot v1, https://goo.gl/fbAQLP

exports[`Login screen should send correct values to api 1`] = `
Array [
  Array [
    "https://jsonplaceholder.typicode.com/users",
    Object {
      "body": "{\\"userName\\":\\"Mirek\\",\\"password\\":\\"123\\"}",
      "method": "POST",
    },
  ],
  Array [
    "https://jsonplaceholder.typicode.com/users",
    Object {
      "body": "{\\"userName\\":\\"Mirek\\",\\"password\\":\\"123\\"}",
      "method": "POST",
    },
  ],
]
`;
